<?xml version="1.0" standalone="no"?>
<svg width="200" height="250" version="1.1" xmlns="http://www.w3.org/2000/svg">

  <rect x="10" y="10" width="50" height="30" stroke="black" fill="transparent" stroke-width="2"/>

  <circle cx="25" cy="75" r="20" stroke="red" fill="transparent" stroke-width="2"/>

  <line x1="10" x2="50" y1="110" y2="150" stroke="orange" fill="transparent" stroke-width="2"/>

  <polyline points="10 210 15 220 20 215 25 230 30 225 35 240 40 235 45 250" stroke="rgb(100,29,60)" fill="transparent" stroke-width="2"/>

</svg>
