<?xml version="1.0" standalone="no"?>
<svg width="1920" height="969" version="1.1" xmlns="http://www.w3.org/2000/svg">
	<line x1="960.0" x2="960.0" y1="484.5" y2="634.5" stroke="black" fill="black" stroke-width="2"/>
	<line x1="960.0" x2="810.0" y1="634.5" y2="634.5" stroke="black" fill="black" stroke-width="2"/>
	<line x1="810.0" x2="810.0" y1="634.5" y2="484.5" stroke="black" fill="black" stroke-width="2"/>
	<line x1="810.0" x2="960.0" y1="484.5" y2="484.5" stroke="black" fill="black" stroke-width="2"/>
</svg>