<?xml version="1.0" standalone="no"?>
<svg width="1920" height="969" version="1.1" xmlns="http://www.w3.org/2000/svg">
	<line x1="960.0" x2="960.0" y1="484.5" y2="534.5" stroke="black" fill="black" stroke-width="2"/>
	<line x1="960.0" x2="995.35535" y1="534.5" y2="569.85535" stroke="black" fill="black" stroke-width="2"/>
	<line x1="995.35535" x2="976.0368" y1="569.85535" y2="575.03174" stroke="black" fill="black" stroke-width="2"/>
	<line x1="1005.0146" x2="1024.3331" y1="567.26715" y2="562.09076" stroke="black" fill="black" stroke-width="2"/>
</svg>